lab1/tut/simulation/qsim/tut1.msim.vcd
$comment
	File created using the following command:
		vcd file tut1.msim.vcd -direction
$end
$date
	Mon Feb 01 20:40:53 2021
$end
$version
	ModelSim Version 10.5b
$end
$timescale
	1ps
$end

$scope module tut1_vlg_vec_tst $end
$var reg 1 ! clock $end
$var reg 1 " d $end
$var reg 1 # reset $end
$var wire 1 $ q $end

$scope module i1 $end
$var wire 1 % gnd $end
$var wire 1 & vcc $end
$var wire 1 ' unknown $end
$var tri1 1 ( devclrn $end
$var tri1 1 ) devpor $end
$var tri1 1 * devoe $end
$var wire 1 + ~QUARTUS_CREATED_GND~I_combout $end
$var wire 1 , clock~input_o $end
$var wire 1 - d~input_o $end
$var wire 1 . q~reg0feeder_combout $end
$var wire 1 / reset~input_o $end
$var wire 1 0 q~reg0_q $end
$upscope $end
$upscope $end
$enddefinitions $end
#0
$dumpvars
0!
0"
1#
0$
0%
1&
x'
1(
1)
1*
0+
0,
0-
0.
1/
00
$end
#40000
1"
1-
1.
#50000
1!
1,
10
1$
#60000
0"
0-
0.
#100000
0!
0,
#150000
1!
1,
00
0$
#200000
0!
0,
#240000
1"
1-
1.
#250000
1!
1,
10
1$
#260000
0"
0-
0.
#270000
0#
0/
00
0$
#290000
1#
1/
#300000
0!
0,
#350000
1!
1,
#400000
0!
0,
#450000
1!
1,
#500000
0!
0,
#550000
1!
1,
#600000
0!
0,
#650000
1!
1,
#700000
0!
0,
#750000
1!
1,
#800000
0!
0,
#850000
1!
1,
#900000
0!
0,
#950000
1!
1,
