lab1/lab/lab1part1/simulation/qsim/lab1part1.msim.vcd
$comment
	File created using the following command:
		vcd file lab1part1.msim.vcd -direction
$end
$date
	Wed Feb 03 13:39:39 2021
$end
$version
	ModelSim Version 10.5b
$end
$timescale
	1ps
$end

$scope module lab1part1_vlg_vec_tst $end
$var reg 4 ! x [3:0] $end
$var wire 1 " hex_LEDs [6] $end
$var wire 1 # hex_LEDs [5] $end
$var wire 1 $ hex_LEDs [4] $end
$var wire 1 % hex_LEDs [3] $end
$var wire 1 & hex_LEDs [2] $end
$var wire 1 ' hex_LEDs [1] $end
$var wire 1 ( hex_LEDs [0] $end

$scope module i1 $end
$var wire 1 ) gnd $end
$var wire 1 * vcc $end
$var wire 1 + unknown $end
$var tri1 1 , devclrn $end
$var tri1 1 - devpor $end
$var tri1 1 . devoe $end
$var wire 1 / ~QUARTUS_CREATED_GND~I_combout $end
$var wire 1 0 x[0]~input_o $end
$var wire 1 1 x[1]~input_o $end
$var wire 1 2 x[3]~input_o $end
$var wire 1 3 x[2]~input_o $end
$var wire 1 4 hex_LEDs~0_combout $end
$var wire 1 5 hex_LEDs~1_combout $end
$var wire 1 6 WideOr4~0_combout $end
$var wire 1 7 WideOr3~0_combout $end
$var wire 1 8 WideOr2~0_combout $end
$var wire 1 9 WideOr1~0_combout $end
$var wire 1 : WideOr0~0_combout $end
$upscope $end
$upscope $end
$enddefinitions $end
#0
$dumpvars
b0 !
0(
0'
0&
0%
0$
0#
1"
0)
1*
x+
1,
1-
1.
0/
00
01
02
03
04
05
06
07
08
09
0:
$end
#25000
b1 !
10
19
18
17
14
1(
1%
1$
1#
#50000
b11 !
b10 !
00
11
1:
08
07
16
04
0(
1&
0%
0$
0"
#75000
b11 !
10
18
06
0&
1$
#100000
b111 !
b101 !
b100 !
00
01
13
09
17
14
1(
1%
0#
#125000
b101 !
10
07
15
04
0(
1'
0%
#150000
b111 !
b110 !
00
11
08
0$
#175000
b111 !
10
0:
19
18
17
05
0'
1%
1$
1#
1"
#200000
b1111 !
b1011 !
b1001 !
b1000 !
00
01
03
12
1:
09
08
07
0%
0$
0#
0"
#225000
b1001 !
10
18
1$
#250000
b1011 !
b1010 !
00
11
08
15
14
1(
1'
0$
#275000
b1011 !
10
19
17
16
1&
1%
1#
#300000
b1111 !
b1101 !
b1100 !
00
01
13
0:
09
0#
1"
#325000
b1101 !
10
1:
06
05
04
0(
0'
0&
0"
#350000
b1111 !
b1110 !
00
11
19
15
14
1(
1'
1#
#375000
b1111 !
10
0:
18
16
1&
1$
1"
#400000
b111 !
b11 !
b1 !
b0 !
00
01
03
02
09
08
07
06
05
04
0(
0'
0&
0%
0$
0#
#425000
b1 !
10
19
18
17
14
1(
1%
1$
1#
#450000
b11 !
b10 !
00
11
1:
08
07
16
04
0(
1&
0%
0$
0"
#475000
b11 !
10
18
06
0&
1$
#500000
b111 !
b101 !
b100 !
00
01
13
09
17
14
1(
1%
0#
#525000
b101 !
10
07
15
04
0(
1'
0%
#550000
b111 !
b110 !
00
11
08
0$
#575000
b111 !
10
0:
19
18
17
05
0'
1%
1$
1#
1"
#600000
b1111 !
b1011 !
b1001 !
b1000 !
00
01
03
12
1:
09
08
07
0%
0$
0#
0"
#625000
b1001 !
10
18
1$
#650000
b1011 !
b1010 !
00
11
08
15
14
1(
1'
0$
#675000
b1011 !
10
19
17
16
1&
1%
1#
#700000
b1111 !
b1101 !
b1100 !
00
01
13
0:
09
0#
1"
#725000
b1101 !
10
1:
06
05
04
0(
0'
0&
0"
#750000
b1111 !
b1110 !
00
11
19
15
14
1(
1'
1#
#775000
b1111 !
10
0:
18
16
1&
1$
1"
#800000
b111 !
b11 !
b1 !
b0 !
00
01
03
02
09
08
07
06
05
04
0(
0'
0&
0%
0$
0#
#825000
b1 !
10
19
18
17
14
1(
1%
1$
1#
#850000
b11 !
b10 !
00
11
1:
08
07
16
04
0(
1&
0%
0$
0"
#875000
b11 !
10
18
06
0&
1$
#900000
b111 !
b101 !
b100 !
00
01
13
09
17
14
1(
1%
0#
#925000
b101 !
10
07
15
04
0(
1'
0%
#950000
b111 !
b110 !
00
11
08
0$
#975000
b111 !
10
0:
19
18
17
05
0'
1%
1$
1#
1"
